TECLADO/teclado.zip/prueba001.vcd
$date
	Sat Jul 19 20:01:43 2025
$end
$version
	GTKWave Analyzer v3.3.117 (w)1999-2023 BSI
$end
$timescale
	1ps
$end
$scope module keyboard_pwm_tb $end
$var wire 1 # pwm_out $end
$var reg 4 " btn[3:0] $end
$upscope $end
$enddefinitions $end
#0
$dumpvars
b0 "
x#
$end
#10000
0#
#100000
b1 "
#110000
1#
#310000
0#
#510000
1#
#710000
0#
#910000
1#
#1100000
b10 "
#1310000
0#
#1710000
1#
#2100000
b100 "
#2310000
0#
#2910000
1#
#3100000
b1000 "
#3710000
0#
#4100000
b0 "
